module gitlab.com/PyVitaly/gorm-test

go 1.18

require (
	github.com/go-gormigrate/gormigrate/v2 v2.0.2
	github.com/sirupsen/logrus v1.8.1
	gorm.io/driver/postgres v1.3.7
	gorm.io/gorm v1.23.6
)

require (
	github.com/jackc/chunkreader/v2 v2.0.1 // indirect
	github.com/jackc/pgconn v1.12.1 // indirect
	github.com/jackc/pgio v1.0.0 // indirect
	github.com/jackc/pgpassfile v1.0.0 // indirect
	github.com/jackc/pgproto3/v2 v2.3.0 // indirect
	github.com/jackc/pgservicefile v0.0.0-20200714003250-2b9c44734f2b // indirect
	github.com/jackc/pgtype v1.11.0 // indirect
	github.com/jackc/pgx/v4 v4.16.1 // indirect
	github.com/jinzhu/inflection v1.0.0 // indirect
	github.com/jinzhu/now v1.1.5 // indirect
	golang.org/x/crypto v0.0.0-20220622213112-05595931fe9d // indirect
	golang.org/x/sys v0.0.0-20220627191245-f75cf1eec38b // indirect
	golang.org/x/text v0.3.7 // indirect
)
